[
    {"Code":"AB","Name":"Nabeel Herzalla","City":"Coconut Creek","Country":"USA"},
    {"Code":"CD","Name":"User 1","City":"Coral Springs","Country":"USA"},
    {"Code":"EF","Name":"User 2","City":"Boca Raton","Country":"USA"},
    {"Code":"GM","Name":"User 3","City":"Margater","Country":"USA"},
    {"Code":"QA","Name":"Georty GHamlan","City":"Coconut Creek","Country":"USA"},
    {"Code":"ZY","Name":"Alberto Gonzales","City":"Coconut Creek","Country":"USA"},
    {"Code":"MH","Name":"Math Smith","City":"Miami","Country":"USA"},
    {"Code":"RT","Name":"Alber Yanez","City":"Miramar","Country":"USA"},
    {"Code":"QF","Name":"Joseph Amando","City":"Miami","Country":"USA"},
    {"Code":"VG","Name":"Fadi Yaya","City":"Miami","Country":"USA"},
    {"Code":"OP","Name":"Jose Gonzalo","City":"Miami","Country":"USA"},
    {"Code":"AE","Name":"Oman Albert","City":"Coconut Creek","Country":"USA"},
    {"Code":"OI","Name":"Roberto Alberto","City":"Boca Raton","Country":"USA"},
    {"Code":"AQD","Name":"Zalan Amando","City":"Miramar","Country":"USA"},
    {"Code":"CDFG","Name":"Yankee York","City":"Sunrise","Country":"USA"},
    {"Code":"POI","Name":"Badi Alberto","City":"Weston","Country":"USA"},
    {"Code":"AQWE","Name":"Sohel Man","City":"Coconut Creek","Country":"USA"},
    {"Code":"RTY","Name":"John Smith","City":"Weston","Country":"USA"},
    {"Code":"YUA","Name":"Mad Man","City":"Coconut Creek","Country":"USA"},
    {"Code":"QOL","Name":"Nab Joseph","City":"Sunrise","Country":"USA"}
]